CropData • icardaFIGSr
…
#> Columns: 12
#> Groups: sitecode [1]
#> $ sitecode       <chr> "TUR48::70", "TUR48::70", "TUR48::70", "TUR48::70", "TU…
#> $ tmin           <dbl> 17.58235, 16.18235, 15.96471, 15.55294, 15.51471, 18.97…
#> $ tmax           <dbl> 24.77647, 24.37941, 26.58235, 27.42941, 28.88529, 28.77…
#> $ gdd            <dbl> 21.17941, 20.28088, 21.27353, 21.49117, 22.20000, 23.87…
#> $ cumgdd         <dbl> 21.17941, 41.46029, 62.73382, 84.22500, 106.42499, 130.…
#> $ DAP            <int> 1, 2, 3, 4, 5, 6, 7, 8, 9, 10, 11, 12, 13, 14, 15, 16, …
#> $ onset          <int> 277, 277, 277, 277, 277, 277, 277, 277, 277, 277, 277, …
#> $ heading        <int> 9, 9, 9, 9, 9, 9, 9, 9, 9, 9, 9, 9, 9, 9, 9, 9, 9, 9, 9…
#> $ flower_beg     <int> 18, 18, 18, 18, 18, 18, 18, 18, 18, 18, 18, 18, 18, 18,…
#> $ flower_end     <int> 27, 27, 27, 27, 27, 27, 27, 27, 27, 27, 27, 27, 27, 27,…
#> $ grain_fill_beg <int> 44, 44, 44, 44, 44, 44, 44, 44, 44, 44, 44, 44, 44, 44,…
#> $ grain_fill_end <int> 74, 74, 74, 74, 74, 74, 74, 74, 74, 74, 74, 74, 74, 74,…
#> # A tibble: 365 × 12
#> # Groups:   sitecode [1]
#>    sitecode   tmin  tmax   gdd cumgdd   DAP onset heading flower_beg flower_end
#>    <chr>     <dbl> <dbl> <dbl>  <dbl> <int> <int>   <int>      <int>      <int>
#>  1 TUR48::70  17.6  24.8  21.2   21.2     1   277       9         18         27
#>  2 TUR48::70  16.2  24.4  20.3   41.5     2   277       9         18         27
#>  3 TUR48::70  16.0  26.6  21.3   62.7     3   277       9         18         27
#>  4 TUR48::70  15.6  27.4  21.5   84.2     4   277       9         18         27
#>  5 TUR48::70  15.5  28.9  22.2  106.      5   277       9         18         27
#>  6 TUR48::70  19.0  28.8  23.9  130.      6   277       9         18         27
#>  7 TUR48::70  16.8  24.9  20.8  151.      7   277       9         18         27
#>  8 TUR48::70  16.4  26.0  21.2  172.      8   277       9         18         27
#>  9 TUR48::70  16.0  26.5  21.3  194.      9   277       9         18         27
#> 10 TUR48::70  14.3  26.6  20.4  214.     10   277       9         18         27
#> # ℹ 355 more rows
#> # ℹ 2 more variables: grain_fill_beg <int>, grain_fill_end <int>
…
#> Rows: 365
#> Columns: 11
#> Groups: sitecode [1]
#> $ sitecode     <chr> "YEM80-1:130", "YEM80-1:130", "YEM80-1:130", "YEM80-1:130…
#> $ tmin         <dbl> 17.81177, 17.84706, 18.04706, 18.02941, 18.40000, 18.5588…
#> $ tmax         <dbl> 25.80294, 26.56471, 26.74706, 27.45588, 27.53235, 27.7470…
#> $ gdd          <dbl> 21.80736, 22.20589, 22.39706, 22.74264, 22.96617, 23.1529…
#> $ cumgdd       <dbl> 21.80736, 44.01324, 66.41030, 89.15295, 112.11912, 135.27…
#> $ DAP          <int> 1, 2, 3, 4, 5, 6, 7, 8, 9, 10, 11, 12, 13, 14, 15, 16, 17…
#> $ onset        <int> 253, 253, 253, 253, 253, 253, 253, 253, 253, 253, 253, 25…
#> $ flower_beg   <int> 49, 49, 49, 49, 49, 49, 49, 49, 49, 49, 49, 49, 49, 49, 4…
#> $ `flower_50%` <int> 62, 62, 62, 62, 62, 62, 62, 62, 62, 62, 62, 62, 62, 62, 6…
#> $ seed_fill    <int> 79, 79, 79, 79, 79, 79, 79, 79, 79, 79, 79, 79, 79, 79, 7…
#> $ maturity     <int> 111, 111, 111, 111, 111, 111, 111, 111, 111, 111, 111, 11…
#> # A tibble: 365 × 11
#> # Groups:   sitecode [1]
#>    sitecode     tmin  tmax   gdd cumgdd   DAP onset flower_beg `flower_50%`
#>    <chr>       <dbl> <dbl> <dbl>  <dbl> <int> <int>      <int>        <int>
#>  1 YEM80-1:130  17.8  25.8  21.8   21.8     1   253         49           62
#>  2 YEM80-1:130  17.8  26.6  22.2   44.0     2   253         49           62
#>  3 YEM80-1:130  18.0  26.7  22.4   66.4     3   253         49           62
#>  4 YEM80-1:130  18.0  27.5  22.7   89.2     4   253         49           62
#>  5 YEM80-1:130  18.4  27.5  23.0  112.      5   253         49           62
#>  6 YEM80-1:130  18.6  27.7  23.2  135.      6   253         49           62
#>  7 YEM80-1:130  19.3  27.3  23.3  159.      7   253         49           62
#>  8 YEM80-1:130  19.1  29.8  24.5  183.      8   253         49           62
#>  9 YEM80-1:130  19.0  27.7  23.4  206.      9   253         49           62
#> 10 YEM80-1:130  18.8  29.1  24.0  230.     10   253         49           62
#> # ℹ 355 more rows
#> # ℹ 2 more variables: seed_fill <int>, maturity <int>
…
#> Rows: 365
#> Columns: 11
#> Groups: sitecode [1]
#> $ sitecode       <chr> "IND::6", "IND::6", "IND::6", "IND::6", "IND::6", "IND:…
#> $ tmin           <dbl> 22.91471, 21.57059, 21.84706, 21.07647, 19.90882, 20.33…
#> $ tmax           <dbl> 31.98529, 31.42353, 33.10588, 33.29412, 33.71471, 34.24…
#> $ gdd            <dbl> 27.45000, 26.49706, 27.47647, 27.18529, 26.81176, 27.28…
#> $ cumgdd         <dbl> 27.45000, 53.94706, 81.42353, 108.60882, 135.42059, 162…
#> $ DAP            <int> 1, 2, 3, 4, 5, 6, 7, 8, 9, 10, 11, 12, 13, 14, 15, 16, …
#> $ onset          <int> 261, 261, 261, 261, 261, 261, 261, 261, 261, 261, 261, …
#> $ flower_beg     <int> 290, 290, 290, 290, 290, 290, 290, 290, 290, 290, 290, …
#> $ flower_end     <int> 298, 298, 298, 298, 298, 298, 298, 298, 298, 298, 298, …
#> $ grain_fill_beg <int> 307, 307, 307, 307, 307, 307, 307, 307, 307, 307, 307, …
#> $ grain_fill_end <int> 343, 343, 343, 343, 343, 343, 343, 343, 343, 343, 343, …
#> # A tibble: 365 × 11
#> # Groups:   sitecode [1]
#>    sitecode  tmin  tmax   gdd cumgdd   DAP onset flower_beg flower_end
#>    <chr>    <dbl> <dbl> <dbl>  <dbl> <int> <int>      <int>      <int>
#>  1 IND::6    22.9  32.0  27.4   27.4     1   261        290        298
#>  2 IND::6    21.6  31.4  26.5   53.9     2   261        290        298
#>  3 IND::6    21.8  33.1  27.5   81.4     3   261        290        298
#>  4 IND::6    21.1  33.3  27.2  109.      4   261        290        298
#>  5 IND::6    19.9  33.7  26.8  135.      5   261        290        298
#>  6 IND::6    20.3  34.2  27.3  163.      6   261        290        298
#>  7 IND::6    21.1  35.1  28.1  191.      7   261        290        298
#>  8 IND::6    21.8  35.6  28.7  220.      8   261        290        298
#>  9 IND::6    22.0  35.3  28.6  248.      9   261        290        298
#> 10 IND::6    20.9  35.0  27.9  276.     10   261        290        298
#> # ℹ 355 more rows
#> # ℹ 2 more variables: grain_fill_beg <int>, grain_fill_end <int>
…
