ML_Workflows • icardaFIGSr
…
# Lets select some random predictors for simplicity. 
random_cols <- sample(colnames(septoriaDurumWC), 7)

# Note : we can still use the whole dataset for model training and testing.

# Select Y and predictors.
septoriaDurumWC_sample <- septoriaDurumWC %>%
   dplyr::select(ST_S, all_of(random_cols))

# check results
septoriaDurumWC_sample
#> # A tibble: 200 × 8
#>    ST_S   bio8 tmax10 tmin11 prec12  bio1 bio10 bio14
#>    <fct> <dbl>  <dbl>  <dbl>  <dbl> <dbl> <dbl> <dbl>
#>  1 S       103    197     26     72   119   238     2
#>  2 R        40    215     28     99   131   223    11
#>  3 R       103    227     96     62   175   269     1
#>  4 R       207    144      8     66   100   224    32
#>  5 R       147    155    -64     14    63   174    11
#>  6 S       169    253     86      8   178   192     8
#>  7 S       182     85   -163      7     0   182     5
#>  8 R       193    115    -20     47    72   193    34
#>  9 R        84    213     71     53   156   250     3
#> 10 S        79    206     66     57   151   247     3
#> # ℹ 190 more rows
…
